{
  "name": "group",
  "base": "PersistedModel",
  "strict": false,
  "idInjection": false,
  "options": {
    "validateUpsert": true
  },
  "properties": {
    "group": {
      "type": "number",
      "id": true
    }
  },
  "validations": [],
  "relations": {
    "answers": {
      "type": "hasMany",
      "model": "answer",
      "foreignKey": ""
    }
  },
  "acls": [],
  "methods": []
}
